#FIG 3.1
Portrait
Center
Inches
1200 2
1 3 0 5 -1 3 0 0 20 0.0000000 1 0.000 2400 5400 150 150 2400 5400 2400 5550
1 3 0 5 -1 3 0 0 20 0.0000000 1 0.000 3900 4200 150 150 3900 4200 3900 4350
1 3 0 5 -1 3 0 0 20 0.0000000 1 0.000 5100 5400 150 150 5100 5400 5100 5550
1 3 0 5 -1 3 0 0 20 0.0000000 1 0.000 7350 5400 150 150 7350 5400 7350 5550
1 3 0 5 -1 3 0 0 20 0.0000000 1 0.000 9600 4200 150 150 9600 4200 9600 4350
1 3 0 5 -1 3 0 0 20 0.0000000 1 0.000 9600 5400 150 150 9600 5400 9600 5550
1 3 0 5 -1 3 0 0 20 0.0000000 1 0.000 11400 5400 150 150 11400 5400 11400 5550
1 3 0 5 -1 3 0 0 20 0.0000000 1 0.000 9600 2700 150 150 9600 2700 9600 2850
1 3 0 5 -1 3 0 0 20 0.0000000 1 0.000 14400 4200 150 150 14400 4200 14400 4350
1 3 0 5 -1 3 0 0 20 0.0000000 1 0.000 15450 5400 150 150 15450 5400 15450 5550
1 3 0 5 -1 3 0 0 20 0.0000000 1 0.000 13200 5400 150 150 13200 5400 13200 5550
2 1 0 5 -1 7 5 0 -1 0.000 0 0 7 0 0 2
	 2400 5400 975 6600
2 1 0 5 -1 7 5 0 -1 0.000 0 0 7 0 0 2
	 2400 5400 1950 6600
2 1 0 5 -1 7 5 0 -1 0.000 0 0 7 0 0 2
	 2400 5400 2850 6600
2 1 0 5 -1 7 5 0 -1 0.000 0 0 7 0 0 2
	 2400 5400 3750 6600
2 1 0 5 -1 7 5 0 -1 0.000 0 0 7 0 0 2
	 3900 4200 2400 5400
2 1 0 5 -1 7 5 0 -1 0.000 0 0 7 0 0 2
	 3900 4200 5100 5400
2 1 0 5 -1 7 5 0 -1 0.000 0 0 7 0 0 2
	 9600 2700 3900 4200
2 1 0 5 -1 7 5 0 -1 0.000 0 0 7 0 0 2
	 5100 5400 4650 6600
2 1 0 5 -1 7 5 0 -1 0.000 0 0 7 0 0 2
	 5100 5400 5550 6600
2 1 0 5 -1 7 5 0 -1 0.000 0 0 7 0 0 3
	 7350 5400 6450 6525 6450 6600
2 1 0 5 -1 7 5 0 -1 0.000 0 0 7 0 0 2
	 7350 5400 7350 6600
2 1 0 5 -1 7 5 0 -1 0.000 0 0 7 0 0 2
	 7350 5400 8250 6600
2 1 0 5 -1 7 5 0 -1 0.000 0 0 7 0 0 2
	 9600 4200 7350 5400
2 1 0 5 -1 7 5 0 -1 0.000 0 0 7 0 0 2
	 9600 2700 9600 4200
2 1 0 5 -1 7 5 0 -1 0.000 0 0 7 0 0 2
	 9600 4200 9600 5400
2 1 0 5 -1 7 5 0 -1 0.000 0 0 7 0 0 2
	 9600 5400 9150 6600
2 1 0 5 -1 7 5 0 -1 0.000 0 0 7 0 0 2
	 9600 5400 10050 6600
2 1 0 5 -1 7 5 0 -1 0.000 0 0 7 0 0 2
	 9600 4200 11400 5400
2 1 0 5 -1 7 5 0 -1 0.000 0 0 7 0 0 2
	 11400 5400 10950 6600
2 1 0 5 -1 7 5 0 -1 0.000 0 0 7 0 0 2
	 11400 5400 11850 6600
2 1 0 5 -1 7 5 0 -1 0.000 0 0 7 0 0 2
	 13200 5400 12750 6600
2 1 0 5 -1 7 5 0 -1 0.000 0 0 7 0 0 2
	 13200 5400 13650 6600
2 1 0 5 -1 7 5 0 -1 0.000 0 0 7 0 0 2
	 14400 4200 13200 5400
2 1 0 5 -1 7 5 0 -1 0.000 0 0 7 0 0 2
	 9600 2700 14400 4200
2 1 0 5 -1 7 5 0 -1 0.000 0 0 7 0 0 2
	 14400 4200 15450 5400
2 1 0 5 -1 7 5 0 -1 0.000 0 0 7 0 0 2
	 15450 5400 14550 6600
2 1 0 5 -1 7 5 0 -1 0.000 0 0 7 0 0 2
	 15450 5400 15450 6600
2 1 0 5 -1 7 5 0 -1 0.000 0 0 7 0 0 2
	 15450 5400 16350 6600
2 2 0 5 -1 7 0 0 20 0.000 0 0 7 0 0 5
	 16200 6600 16500 6600 16500 6900 16200 6900 16200 6600
2 2 0 5 -1 7 0 0 20 0.000 0 0 7 0 0 5
	 15300 6600 15600 6600 15600 6900 15300 6900 15300 6600
2 2 0 5 -1 7 0 0 20 0.000 0 0 7 0 0 5
	 14400 6600 14700 6600 14700 6900 14400 6900 14400 6600
2 2 0 5 -1 7 0 0 20 0.000 0 0 7 0 0 5
	 13500 6600 13800 6600 13800 6900 13500 6900 13500 6600
2 2 0 5 -1 7 0 0 20 0.000 0 0 7 0 0 5
	 12600 6600 12900 6600 12900 6900 12600 6900 12600 6600
2 2 0 5 -1 7 0 0 20 0.000 0 0 7 0 0 5
	 11700 6600 12000 6600 12000 6900 11700 6900 11700 6600
2 2 0 5 -1 7 0 0 20 0.000 0 0 7 0 0 5
	 10800 6600 11100 6600 11100 6900 10800 6900 10800 6600
2 2 0 5 -1 7 0 0 20 0.000 0 0 7 0 0 5
	 9900 6600 10200 6600 10200 6900 9900 6900 9900 6600
2 2 0 5 -1 7 0 0 20 0.000 0 0 7 0 0 5
	 9000 6600 9300 6600 9300 6900 9000 6900 9000 6600
2 2 0 5 -1 7 0 0 20 0.000 0 0 7 0 0 5
	 8100 6600 8400 6600 8400 6900 8100 6900 8100 6600
2 2 0 5 -1 7 0 0 20 0.000 0 0 7 0 0 5
	 7200 6600 7500 6600 7500 6900 7200 6900 7200 6600
2 2 0 5 -1 7 0 0 20 0.000 0 0 7 0 0 5
	 6300 6600 6600 6600 6600 6900 6300 6900 6300 6600
2 2 0 5 -1 7 0 0 20 0.000 0 0 7 0 0 5
	 5400 6600 5700 6600 5700 6900 5400 6900 5400 6600
2 2 0 5 -1 7 0 0 20 0.000 0 0 7 0 0 5
	 4500 6600 4800 6600 4800 6900 4500 6900 4500 6600
2 2 0 5 -1 7 0 0 20 0.000 0 0 7 0 0 5
	 3600 6600 3900 6600 3900 6900 3600 6900 3600 6600
2 2 0 5 -1 7 0 0 20 0.000 0 0 7 0 0 5
	 2700 6600 3000 6600 3000 6900 2700 6900 2700 6600
2 2 0 5 -1 7 0 0 20 0.000 0 0 7 0 0 5
	 1800 6600 2100 6600 2100 6900 1800 6900 1800 6600
2 2 0 5 -1 7 0 0 20 0.000 0 0 7 0 0 5
	 900 6600 1200 6600 1200 6900 900 6900 900 6600
