#FIG 3.1
Landscape
Center
Inches
1200 2
1 3 0 2 0 3 1 0 20 0.0000000 1 0.000 1800 1800 168 168 1800 1800 1968 1968
1 3 0 2 0 3 1 0 20 0.0000000 1 0.000 2700 1800 168 168 2700 1800 2868 1968
1 3 0 1 -1 0 0 0 42 0.0000000 1 0.000 2680 4805 168 168 2680 4805 2848 4973
1 3 0 1 -1 0 0 0 42 0.0000000 1 0.000 3604 4054 168 168 3604 4054 3772 4222
1 3 0 1 -1 0 0 0 42 0.0000000 1 0.000 2704 4054 168 168 2704 4054 2872 4222
1 3 0 1 -1 0 0 0 42 0.0000000 1 0.000 1804 4804 168 168 1804 4804 1972 4972
1 3 0 1 -1 0 0 0 42 0.0000000 1 0.000 904 4804 168 168 904 4804 1072 4972
1 3 0 1 -1 0 0 0 42 0.0000000 1 0.000 1800 2700 168 168 1800 2700 1968 2868
1 3 0 1 -1 0 0 0 42 0.0000000 1 0.000 900 1800 168 168 900 1800 1068 1968
1 3 0 1 -1 0 0 0 42 0.0000000 1 0.000 1800 900 168 168 1800 900 1968 1068
1 3 0 1 -1 0 0 0 42 0.0000000 1 0.000 2700 900 168 168 2700 900 2868 1068
1 3 0 1 -1 0 0 0 42 0.0000000 1 0.000 3600 1782 168 168 3600 1782 3768 1950
1 3 0 1 -1 3 0 0 23 0.0000000 1 0.000 2704 3304 168 168 2704 3304 2872 3472
1 3 0 1 -1 3 0 0 23 0.0000000 1 0.000 1804 4054 168 168 1804 4054 1972 4222
2 1 0 4 0 0 3 0 20 0.000 0 0 -1 0 0 2
	 2700 900 2700 1875
2 1 0 4 0 0 3 0 20 0.000 0 0 -1 0 0 2
	 1800 825 1800 2700
2 1 0 4 0 0 3 0 20 0.000 0 0 -1 0 0 2
	 2701 3301 3601 4051
2 1 0 4 0 0 3 0 20 0.000 0 0 -1 0 0 2
	 2701 3301 2701 4051
2 1 0 4 0 0 3 0 20 0.000 0 0 -1 0 0 2
	 1801 4051 1801 4801
2 1 0 4 0 0 3 0 -1 0.000 0 0 -1 0 0 2
	 900 1800 1800 1800
2 1 0 4 0 0 3 0 -1 0.000 0 0 -1 0 0 2
	 2700 1800 3600 1800
2 1 0 4 1 1 3 0 6 0.000 0 0 -1 0 0 2
	 2700 3300 1800 4050
2 1 0 4 0 0 3 0 20 0.000 0 0 -1 0 0 2
	 1801 4051 2701 4801
2 1 0 4 0 0 3 0 -1 0.000 0 0 -1 0 0 2
	 1800 4050 900 4800
2 1 0 4 1 1 3 0 6 0.000 0 0 -1 0 0 2
	 1800 1800 2700 1800
4 0 8 0 0 0 18 0.0000000 4 135 135 1725 1875 a\001
4 0 8 0 0 0 18 0.0000000 4 195 135 2625 1875 b\001
4 0 8 0 0 0 18 0.0000000 4 135 135 1728 4128 a\001
4 0 -1 0 0 0 16 0.0000000 4 195 120 2627 3377 b\001
