#FIG 3.1
Landscape
Center
Inches
1200 2
1 3 0 1 2 0 0 0 20 0.0000000 1 0.000 3675 825 168 168 3675 825 3843 993
1 3 0 1 2 0 0 0 20 0.0000000 1 0.000 2775 1575 168 168 2775 1575 2943 1743
1 3 0 1 2 4 0 0 20 0.0000000 1 0.000 4575 1575 168 168 4575 1575 4743 1743
1 3 0 1 2 4 0 0 20 0.0000000 1 0.000 6300 3000 168 168 6300 3000 6468 3168
1 3 0 1 2 0 0 0 20 0.0000000 1 0.000 5382 2232 168 168 5382 2232 5550 2400
1 3 0 1 2 0 0 0 20 0.0000000 1 0.000 3750 2325 168 168 3750 2325 3918 2493
1 3 0 1 2 4 0 0 20 0.0000000 1 0.000 4650 3075 168 168 4650 3075 4818 3243
2 2 0 1 -1 0 0 0 44 0.000 0 0 7 0 0 5
	 5920 3220 6150 3220 6150 3450 5920 3450 5920 3220
2 2 0 1 -1 0 0 0 44 0.000 0 0 7 0 0 5
	 3375 2545 3605 2545 3605 2775 3375 2775 3375 2545
2 2 0 1 -1 0 0 0 44 0.000 0 0 7 0 0 5
	 5020 2470 5250 2470 5250 2700 5020 2700 5020 2470
2 2 0 1 -1 0 0 0 44 0.000 0 0 7 0 0 5
	 6445 3220 6675 3220 6675 3450 6445 3450 6445 3220
2 2 0 1 -1 0 0 0 44 0.000 0 0 7 0 0 5
	 4270 3295 4500 3295 4500 3525 4270 3525 4270 3295
2 2 0 1 -1 0 0 0 44 0.000 0 0 7 0 0 5
	 4800 3295 5030 3295 5030 3525 4800 3525 4800 3295
2 2 0 1 -1 0 0 0 44 0.000 0 0 7 0 0 5
	 2395 1790 2625 1790 2625 2025 2395 2025 2395 1790
2 1 0 1 -1 7 3 0 -1 0.000 0 0 -1 0 0 2
	 4650 3075 4950 3375
2 2 0 1 -1 0 0 0 44 0.000 0 0 7 0 0 5
	 2915 1800 3150 1800 3150 2025 2915 2025 2915 1800
2 1 0 3 0 0 3 0 -1 0.000 0 0 7 0 0 2
	 3675 825 6300 3000
2 1 0 3 0 0 3 0 -1 0.000 0 0 -1 0 0 2
	 4575 1575 3750 2325
2 1 0 3 0 0 3 0 -1 0.000 0 0 -1 0 0 2
	 3750 2325 4650 3075
2 1 0 3 0 0 3 0 -1 0.000 0 0 -1 0 0 2
	 3675 825 2775 1575
2 1 0 2 2 7 3 0 -1 0.000 0 0 -1 0 0 3
	 2775 1575 2550 1800 2475 1800
2 1 0 2 2 7 3 0 -1 0.000 0 0 -1 0 0 2
	 3750 2325 3450 2625
2 1 0 2 2 7 3 0 -1 0.000 0 0 -1 0 0 2
	 2775 1575 3000 1800
2 1 0 2 2 7 3 0 -1 0.000 0 0 -1 0 0 2
	 4650 3075 4425 3300
2 1 0 2 2 7 3 0 -1 0.000 0 0 -1 0 0 2
	 4650 3075 4950 3375
2 1 0 2 2 7 3 0 -1 0.000 0 0 -1 0 0 2
	 5400 2250 5100 2550
2 1 0 2 2 7 3 0 -1 0.000 0 0 -1 0 0 2
	 6300 3000 6075 3225
2 1 0 2 2 7 3 0 -1 0.000 0 0 -1 0 0 2
	 6300 3000 6525 3225
