#FIG 3.1
Landscape
Center
Inches
1200 2
1 3 0 1 -1 7 0 0 -1 0.0000000 1 0.000 7200 4800 2400 2400 7200 4800 7200 7200
1 3 0 1 -1 7 0 0 -1 0.0000000 1 0.000 2400 4800 2401 2401 2400 4800 2475 7200
2 1 0 5 -1 7 0 0 -1 0.000 0 0 -1 0 0 2
	 9600 4800 0 4800
2 1 0 5 -1 7 0 0 -1 0.000 0 0 -1 0 0 2
	 4800 0 4800 9600
