#FIG 3.1
Portrait
Center
Inches
1200 2
2 2 0 1 -1 14 0 0 0 0.000 0 0 0 0 0 5
	 6600 9900 6600 9900 6600 9900 6600 9900 6600 9900
2 1 0 1 -1 1 0 0 20 0.000 0 0 -1 0 0 2
	 675 3750 5025 3750
2 1 0 1 -1 1 0 0 20 0.000 0 0 -1 0 0 2
	 5400 3750 9750 3750
2 1 0 1 -1 1 0 0 20 0.000 0 0 -1 0 0 2
	 9750 3750 10800 3750
2 1 0 1 -1 1 0 0 20 0.000 0 0 -1 0 0 2
	 11250 3750 15600 3750
2 1 0 1 -1 1 0 0 20 0.000 0 0 -1 0 0 2
	 15600 3750 16650 3750
2 1 0 1 -1 1 0 0 20 0.000 0 0 -1 0 0 2
	 450 7800 4800 7800
2 1 0 1 -1 1 0 0 20 0.000 0 0 -1 0 0 2
	 5700 7800 10050 7800
2 1 0 1 -1 1 0 0 20 0.000 0 0 -1 0 0 2
	 11100 7800 15450 7800
2 1 0 1 -1 1 0 0 20 0.000 0 0 -1 0 0 2
	 11700 7800 16050 7800
2 1 0 1 -1 1 0 0 20 0.000 0 0 -1 0 0 2
	 3150 11550 7500 11550
2 1 0 1 -1 1 0 0 20 0.000 0 0 -1 0 0 2
	 8475 11550 12825 11550
2 1 0 1 -1 1 0 0 20 0.000 0 0 -1 0 0 2
	 9075 11550 13425 11550
3 3 0 1 -1 1 0 0 20 0.000 0 0 0 45
	 16425 2475 15825 4425 15450 4725 14850 4725 14325 4350 14325 4125
	 14700 2925 14400 2625 13725 2625 12750 2625 12300 2850 12150 3375
	 11850 4275 11850 4425 12000 4500 12150 4425 12525 3225 12900 2925
	 13725 2850 14100 3075 14175 3450 13650 4875 13275 4800 13650 3825
	 13725 3525 13650 3375 13200 3375 12975 3525 12600 4200 12375 4650
	 12075 4800 11625 4650 11475 4125 12000 2550 12825 2100 14475 2175
	 14925 2475 15150 2850 14850 3900 14925 4200 15300 4275 15525 4050
	 16050 2400 16425 2475 16425 2475
	 16425.00 2475.00 16821.07 3011.25 16114.34 3999.58 15756.89 4525.14
	 15567.29 4683.86 15303.46 4776.40 14995.16 4771.52 14693.91 4674.98
	 14410.25 4515.66 14295.27 4292.23 14317.05 4177.07 14369.40 3834.04
	 14792.29 3300.09 14668.86 2798.42 14505.71 2668.78 14231.83 2555.34
	 13878.77 2625.00 13502.88 2625.00 12980.13 2570.67 12631.25 2653.03
	 12388.16 2743.78 12204.33 2965.28 12186.78 3256.10 12086.09 3581.58
	 11885.69 4055.02 11844.36 4309.78 11825.56 4385.45 11877.33 4469.22
	 11952.06 4500.00 12047.94 4500.00 12120.47 4459.70 12371.35 4164.86
	 12346.37 3486.40 12593.23 3125.15 12788.14 2970.03 13092.96 2847.32
	 13519.11 2802.90 13833.69 2874.86 14030.76 2976.76 14160.54 3160.91
	 14182.38 3355.25 14145.68 3826.25 14126.89 4608.12 13529.91 4942.21
	 13340.37 4918.78 13096.43 4475.54 13577.97 4052.94 13671.32 3757.53
	 13733.84 3605.53 13720.21 3481.33 13694.22 3402.33 13531.35 3301.67
	 13308.28 3342.21 13134.93 3394.70 13019.60 3476.64 12847.64 3663.11
	 12682.11 4044.32 12546.50 4301.44 12466.08 4558.91 12314.28 4710.72
	 12165.22 4793.59 11947.40 4809.07 11720.57 4749.82 11514.99 4535.10
	 11472.01 4262.77 11484.10 3706.10 11716.66 2888.73 12160.39 2358.26
	 12597.84 2152.46 13224.26 2007.79 14085.87 2047.47 14602.42 2216.76
	 14834.97 2380.59 14997.80 2551.34 15134.38 2731.53 15189.00 3145.84
	 14854.48 3630.82 14848.73 3976.22 14854.94 4133.20 15011.65 4282.62
	 15192.80 4307.46 15389.20 4247.99 15484.73 4116.16 15744.11 3689.98
	 15501.11 2723.59 16171.23 2328.53 16337.29 2466.32 16425.00 2475.00
	 16425.00 2475.00 16821.07 3011.25
3 3 0 1 -1 1 0 0 20 0.000 0 0 0 44
	 8148 2327 7548 4352 7398 4427 7248 4352 7173 4127 7698 2552
	 7623 2402 7248 2177 6648 2177 6273 2252 6048 2552 5598 3677
	 5598 4202 6048 4952 7023 5102 8748 4952 9198 4352 9498 3002
	 9723 2852 9873 2927 9873 3152 9423 4952 9798 4952 10248 2927
	 10023 2627 9498 2552 9048 2927 8748 4277 8373 4577 7848 4802
	 6723 4802 6198 4502 5973 3902 6498 2477 7098 2552 7248 2852
	 7023 3527 6798 4352 7023 4652 7698 4652 7998 4427 8598 2402
	 8148 2327 8148 2327
	 8148.00 2327.00 8563.81 2883.88 7918.78 3909.64 7518.56 4387.13
	 7445.94 4427.00 7350.06 4427.00 7277.63 4386.17 7206.09 4303.68
	 7173.00 4187.72 7173.00 3701.93 7729.74 2998.59 7694.79 2506.89
	 7651.46 2432.73 7548.79 2321.86 7352.42 2205.92 7104.73 2137.32
	 6785.62 2163.37 6560.28 2185.69 6358.42 2198.16 6189.24 2304.79
	 6090.73 2475.97 5909.95 2797.65 5652.47 3394.14 5574.40 3799.56
	 5563.28 4076.64 5655.85 4410.84 5844.76 4815.48 6277.23 5105.98
	 6794.51 5094.47 7424.05 5115.22 8330.72 5183.78 8928.75 4851.61
	 9122.73 4515.65 9336.79 4050.25 9288.92 3307.13 9538.88 2942.34
	 9641.46 2857.08 9773.57 2848.85 9845.67 2882.78 9909.67 2986.32
	 9879.38 3100.21 9820.43 3579.10 9036.51 4457.00 9501.12 5052.05
	 9695.97 5033.84 10362.38 4499.27 10369.63 3490.98 10226.01 2825.05
	 10110.02 2678.52 9899.94 2554.13 9638.42 2512.16 9342.90 2596.00
	 9126.42 2798.32 8862.85 3230.79 8937.50 3972.96 8682.20 4382.58
	 8468.90 4519.53 8258.93 4645.35 7981.75 4774.55 7584.57 4856.07
	 6990.73 4873.10 6579.10 4763.78 6300.10 4621.94 6089.80 4374.89
	 5973.49 4070.06 5971.85 3503.70 6047.75 2751.03 6677.27 2367.89
	 6953.42 2449.71 7178.20 2608.74 7241.59 2761.78 7261.60 3043.40
	 7070.01 3371.72 6966.50 3713.62 6752.50 4113.67 6817.95 4456.51
	 6927.11 4604.06 7195.59 4738.29 7534.05 4706.65 7789.09 4621.64
	 7943.26 4505.71 8306.30 3983.70 9005.90 3054.36 8509.89 2261.09
	 8146.29 2347.62 8148.00 2327.00 8148.00 2327.00 8563.81 2883.88
3 3 0 1 -1 1 0 0 20 0.000 0 0 0 40
	 1275 2175 825 4425 975 4725 1575 4800 1800 4650 2100 3375
	 2400 2850 2550 2775 2700 3150 2250 4575 2400 4875 2925 4950
	 3225 4800 3525 3600 3675 2925 3900 2850 4125 2925 4200 3225
	 3825 5025 4125 5025 4575 3075 4275 2550 3825 2475 3375 2775
	 3000 4575 2775 4650 2700 4575 2625 4425 3075 3000 2775 2475
	 2400 2400 2100 2700 1725 3600 1575 4425 1275 4425 1200 4275
	 1425 3150 1575 2250 1275 2175 1275 2175
	 1275.00 2175.00 1782.26 2793.75 746.55 3839.20 836.47 4510.63
	 894.80 4668.26 1119.58 4827.29 1420.62 4836.44 1644.04 4783.70
	 1758.94 4709.13 1998.87 4363.60 1987.94 3659.58 2151.73 3243.62
	 2289.56 2954.47 2430.63 2821.03 2491.62 2752.80 2690.59 2828.45
	 2696.08 3045.11 2714.49 3538.09 2218.43 4175.72 2257.09 4664.62
	 2320.92 4818.00 2525.04 4965.12 2792.65 4971.48 3008.71 4936.42
	 3166.63 4872.77 3440.27 4531.65 3460.25 3874.30 3561.20 3446.66
	 3536.44 3078.63 3722.53 2872.30 3839.28 2850.00 3960.72 2850.00
	 4077.35 2873.55 4187.12 2992.09 4198.52 3150.27 4208.80 3669.31
	 3422.49 4530.00 3890.68 5105.77 4043.44 5089.88 4669.06 4592.19
	 4652.43 3600.91 4551.61 2916.10 4414.40 2647.10 4169.82 2476.74
	 3943.80 2449.50 3684.16 2505.23 3456.39 2654.52 3098.32 3184.61
	 3367.92 4161.55 2952.54 4628.33 2846.55 4666.89 2743.00 4642.45
	 2714.57 4595.21 2676.96 4543.04 2628.54 4469.81 2593.44 4025.72
	 3118.57 3407.05 3057.37 2835.29 2910.99 2573.01 2688.99 2413.01
	 2507.20 2367.54 2281.07 2436.01 2156.25 2616.01 1970.74 2893.03
	 1788.82 3384.02 1670.12 3785.75 1803.89 4233.97 1493.11 4493.35
	 1354.10 4473.89 1230.78 4397.67 1205.73 4317.82 1160.78 3982.10
	 1377.87 3407.16 1462.48 2945.48 1761.95 2535.14 1511.64 2153.36
	 1272.46 2195.62 1275.00 2175.00 1275.00 2175.00 1782.26 2793.75
3 3 0 1 -1 1 0 0 20 0.000 0 0 0 43
	 1425 6600 825 7875 825 8250 1125 8625 1725 8775 3675 8625
	 3900 8250 3975 7425 3825 7275 2925 7200 2625 7425 2250 8175
	 2025 8175 1950 8025 2550 7125 2850 7050 3975 7125 4200 7500
	 4050 8250 3750 8775 4050 8775 4425 7950 4425 7275 4050 6900
	 2700 6750 2175 7050 1800 7650 1575 8175 1800 8400 2400 8400
	 2625 8250 3000 7500 3150 7500 3675 7575 3600 8175 3450 8325
	 2850 8475 1800 8550 1275 8325 1200 7875 1725 6675 1425 6600
	 1425 6600
	 1425.00 6600.00 1647.51 6950.63 899.10 7543.50 805.28 7963.22
	 792.87 8158.42 866.14 8367.29 1021.25 8558.42 1258.62 8710.74
	 1580.23 8762.80 2182.81 8813.59 3193.94 8922.31 3782.57 8558.52
	 3867.20 8350.46 3962.12 8059.69 4053.89 7642.89 3954.80 7369.20
	 3875.30 7298.33 3610.86 7175.68 3153.88 7134.14 2829.96 7227.35
	 2683.27 7355.18 2494.70 7581.13 2471.09 8038.36 2190.68 8211.66
	 2084.32 8211.66 1980.78 8147.67 1946.85 8075.57 1970.31 7698.85
	 2315.86 7290.00 2616.94 7077.83 2777.78 7056.46 3113.31 7026.45
	 3695.55 6954.26 4083.39 7191.22 4180.23 7385.89 4234.57 7699.57
	 4113.00 8081.73 4000.19 8383.03 3666.21 8630.62 3791.57 8846.63
	 3970.45 8826.22 4290.30 8620.27 4378.90 8162.81 4459.33 7791.49
	 4494.66 7443.18 4370.27 7142.87 4173.71 6959.46 3733.15 6747.71
	 3038.98 6679.78 2549.10 6781.26 2281.55 6947.57 2050.32 7169.86
	 1875.21 7506.14 1739.28 7766.13 1540.18 7994.19 1594.40 8275.73
	 1720.72 8367.16 1949.49 8461.92 2255.63 8443.71 2465.07 8380.30
	 2580.93 8299.92 2761.65 8095.21 2778.91 7636.64 3039.55 7475.56
	 3115.71 7497.56 3271.24 7508.62 3550.90 7412.53 3816.50 7760.25
	 3668.43 8035.09 3575.99 8224.08 3495.74 8299.10 3316.66 8400.50
	 2990.40 8452.61 2611.03 8513.11 2052.59 8592.52 1662.94 8526.93
	 1379.13 8457.65 1191.83 8219.05 1185.90 7988.45 1240.47 7549.29
	 1930.07 7092.36 1676.59 6576.47 1422.46 6620.62 1425.00 6600.00
	 1425.00 6600.00 1647.51 6950.63
3 3 0 1 -1 1 0 0 20 0.000 0 0 0 41
	 9675 6675 9150 8325 8775 8550 8025 8700 7125 8700 6825 8325
	 6975 7425 7425 6975 8175 6975 8325 7200 8100 8025 8175 8100
	 8400 8025 8625 7125 8475 6900 8250 6825 7200 6825 6750 7200
	 6450 8700 6150 8700 6450 7050 6825 6675 7350 6525 8625 6600
	 8850 6825 8925 7275 8550 8250 8325 8325 7950 8325 7800 8025
	 7950 7350 7800 7275 7575 7275 7275 7575 7125 8250 7350 8475
	 8250 8475 8925 8175 9375 6675 9675 6675 9675 6675
	 9675.00 6675.00 10006.80 7128.75 9432.82 7967.44 9078.57 8415.31
	 8871.21 8512.80 8606.73 8615.06 8200.43 8682.63 7818.57 8720.44
	 7353.83 8809.98 7002.90 8641.32 6858.36 8453.08 6761.62 8081.66
	 6868.93 7631.11 7048.98 7281.24 7266.44 7040.68 7611.86 6897.60
	 7981.33 6871.35 8244.83 7012.37 8312.99 7126.00 8362.98 7434.00
	 8033.69 7775.31 8108.23 8055.97 8143.00 8092.45 8246.54 8116.89
	 8352.35 8076.45 8586.37 7823.74 8668.51 7376.22 8612.32 7051.77
	 8530.35 6942.28 8426.45 6862.92 8305.00 6833.92 8006.53 6785.49
	 7457.35 6731.83 7056.43 6876.98 6827.62 7069.53 6547.29 7540.71
	 6866.97 8358.16 6368.23 8767.04 6217.74 8781.17 5771.31 8246.25
	 6253.22 7425.57 6512.23 6931.23 6712.84 6741.00 6940.48 6607.05
	 7222.13 6539.09 7649.10 6492.03 8317.74 6462.03 8701.55 6634.37
	 8813.01 6753.12 8903.03 6928.05 8936.37 7162.81 8898.97 7531.89
	 8761.78 8047.62 8501.92 8295.95 8380.00 8316.08 8238.04 8339.11
	 8048.87 8386.11 7861.57 8270.34 7810.64 8111.39 7778.08 7846.90
	 8052.32 7564.96 7925.19 7297.86 7839.58 7284.34 7746.89 7262.46
	 7631.06 7251.78 7469.29 7318.79 7325.99 7482.12 7191.90 7726.38
	 7067.84 8053.70 7151.31 8340.33 7270.72 8442.16 7574.23 8567.88
	 8038.89 8519.80 8423.27 8438.23 8789.28 8329.11 9212.74 7848.26
	 8952.15 6989.61 9456.00 6614.73 9606.66 6675.00 9675.00 6675.00
	 9675.00 6675.00 10006.80 7128.75
3 3 0 1 -1 1 0 0 20 0.000 0 0 0 41
	 13821 6381 13221 7806 13296 8181 13746 8331 14646 8181 15096 7356
	 15321 7056 15471 7056 15471 7206 14796 8331 13746 8481 13071 8256
	 12996 7956 13221 7056 13146 6756 12846 6606 12171 6606 11796 6756
	 11571 7431 11271 8406 11571 8481 11946 7056 12246 6906 12696 6906
	 12921 7056 12696 8031 12921 8481 13521 8706 14646 8631 15171 8406
	 15846 7131 15696 6831 15321 6681 15021 6756 14421 7881 13896 7956
	 13671 7806 13671 7656 14121 6456 13821 6381 13821 6381
	 13821.00 6381.00 14081.20 6772.88 13260.12 7418.26 13211.32 7901.90
	 13219.54 8094.39 13390.84 8288.43 13630.60 8321.95 13967.97 8348.42
	 14435.35 8330.84 14862.96 8026.67 14979.49 7537.20 15142.49 7283.69
	 15225.11 7103.94 15359.35 7036.82 15429.75 7014.75 15512.25 7097.25
	 15480.92 7170.18 15384.24 7519.27 15103.34 8126.93 14547.53 8495.98
	 14002.20 8504.10 13574.14 8465.50 13213.94 8410.36 13008.88 8188.91
	 12996.00 8031.52 12996.00 7729.43 13221.00 7282.57 13221.00 6980.48
	 13199.82 6823.09 13087.63 6683.23 12925.17 6624.69 12686.68 6568.39
	 12328.58 6575.65 12076.71 6624.16 11873.27 6674.05 11659.88 6900.36
	 11620.47 7276.62 11500.07 7652.34 11081.34 8069.84 11328.49 8507.90
	 11468.13 8541.86 12061.16 8191.00 11688.90 7372.48 12004.52 6983.96
	 12166.83 6924.69 12352.22 6880.93 12587.72 6873.22 12761.07 6925.70
	 12888.53 6974.23 13041.16 7358.59 12665.23 7772.40 12711.47 8161.02
	 12821.59 8391.50 13047.62 8594.99 13368.72 8683.59 13788.94 8745.42
	 14387.64 8693.06 14776.88 8599.56 15062.11 8506.31 15446.03 8152.65
	 15841.16 7547.56 15847.13 7034.15 15761.09 6890.89 15617.62 6758.88
	 15423.55 6687.96 15242.48 6675.67 15088.06 6703.64 14744.49 6971.90
	 14720.97 7670.73 14296.23 7968.46 14032.56 7986.97 13826.37 7940.21
	 13708.37 7875.83 13650.27 7767.27 13664.67 7690.93 13725.11 7357.59
	 14339.17 6871.48 14068.36 6355.75 13818.46 6401.62 13821.00 6381.00
	 13821.00 6381.00 14081.20 6772.88
3 3 0 1 -1 1 0 0 20 0.000 0 0 0 45
	 3975 10425 3450 11775 3525 12075 4050 12225 4350 12000 4650 11025
	 5025 10875 6825 10800 7050 11100 6900 12000 6750 12150 6600 12075
	 6600 11925 6750 11250 6675 11100 6450 11025 5775 11025 5250 11100
	 5025 11400 4800 11925 4725 12225 4800 12375 4875 12300 5400 11325
	 5775 11250 6300 11325 6300 11625 6225 12150 6600 12375 6975 12300
	 7200 12000 7350 11025 7125 10725 6825 10500 4875 10575 4500 10725
	 4275 11325 4050 11925 3900 11850 3750 11775 3750 11625 4050 11025
	 4200 10500 3975 10425 3975 10425
	 3975.00 10425.00 4228.97 10796.25 3473.12 11408.27 3445.06 11853.29
	 3460.17 12007.98 3639.47 12193.34 3896.87 12253.28 4155.17 12205.58
	 4295.04 12078.15 4499.50 11787.41 4455.38 11236.27 4727.05 10941.35
	 4931.92 10894.94 5440.18 10786.04 6351.15 10575.29 6923.63 10846.78
	 7025.82 11000.85 7108.83 11341.25 7006.06 11793.89 6875.34 12047.92
	 6819.44 12138.73 6695.10 12158.91 6627.33 12119.22 6575.56 12035.45
	 6596.22 11959.46 6617.44 11766.16 6771.92 11428.10 6744.68 11206.81
	 6709.17 11129.63 6626.68 11058.09 6504.99 11033.92 6293.48 10999.60
	 5929.32 11014.03 5653.76 11033.62 5373.06 11027.13 5162.98 11151.53
	 5068.49 11324.77 4958.76 11514.58 4841.86 11800.74 4777.34 11992.28
	 4716.16 12144.47 4729.79 12268.67 4746.76 12366.36 4833.67 12380.46
	 4860.21 12319.88 5029.44 12092.43 5150.65 11509.54 5486.11 11261.27
	 5684.90 11252.50 5899.95 11246.53 6174.10 11179.85 6371.22 11407.11
	 6304.87 11556.42 6291.39 11746.24 6152.15 11996.95 6285.07 12276.21
	 6485.89 12355.24 6699.79 12392.28 6889.58 12353.84 7058.76 12247.21
	 7164.49 12084.45 7293.42 11777.86 7414.91 11284.15 7325.33 10926.49
	 7186.87 10786.87 7063.13 10663.13 6917.88 10528.99 6341.64 10349.14
	 5325.16 10479.29 4781.83 10594.81 4577.58 10645.71 4376.91 10850.80
	 4326.26 11188.31 4223.74 11461.69 4269.49 11838.81 3992.56 11947.56
	 3934.17 11867.09 3865.83 11832.91 3777.33 11819.22 3725.56 11735.45
	 3741.64 11660.41 3787.38 11466.66 3994.03 11168.90 4095.56 10907.87
	 4296.94 10683.78 4157.89 10420.17 3971.65 10445.62 3975.00 10425.00
	 3975.00 10425.00 4228.97 10796.25
3 3 0 1 -1 1 0 0 20 0.000 0 0 0 42
	 12750 10350 12150 12225 12000 12225 11925 12225 11850 12075 12300 10800
	 12225 10575 11925 10500 11475 10500 11100 10725 10725 11925 10575 12000
	 10425 12000 10350 11850 10800 10725 10725 10500 10350 10425 9600 10500
	 9150 10875 8775 12000 8850 12225 8850 12225 9075 12075 9525 11025
	 9900 10800 10275 10725 10350 10875 9975 11850 10125 12150 10575 12300
	 11025 12150 11400 10875 11700 10800 11925 10875 11925 11100 11550 12150
	 11700 12450 12300 12450 12525 12225 13050 10425 12750 10425 12750 10350
	 12756.29 10350.98 12585.01 10324.25 12680.41 11837.82 12109.59 12254.50
	 12034.17 12225.00 11982.91 12225.00 11944.77 12237.22 11880.78 12197.67
	 11852.83 12120.45 11827.19 11708.56 12296.95 11148.26 12300.54 10738.91
	 12276.45 10622.65 12157.91 10512.88 11996.18 10508.76 11821.41 10487.25
	 11582.45 10470.24 11370.58 10528.92 11171.33 10634.33 10894.93 10985.65
	 10946.35 11664.86 10695.47 11959.70 10614.58 11990.66 10539.59 12008.36
	 10464.55 12024.44 10380.78 11972.67 10351.92 11896.26 10336.10 11515.78
	 10790.70 11041.55 10801.82 10663.04 10778.72 10547.42 10638.39 10423.54
	 10439.33 10429.37 10173.94 10416.39 9775.14 10426.53 9463.89 10557.10
	 9232.16 10754.62 8983.68 11118.69 8775.00 11696.38 8775.00 12060.72
	 8786.19 12179.01 8850.00 12225.00 8850.00 12225.00 8915.07 12205.30
	 9031.66 12127.10 9258.08 11854.90 9333.82 11244.02 9598.19 10941.16
	 9803.79 10837.20 9984.14 10767.47 10157.95 10667.75 10326.33 10750.10
	 10347.78 10829.00 10363.83 11161.51 9961.17 11563.49 9979.44 11941.99
	 10056.67 12090.74 10221.64 12233.81 10453.55 12300.00 10696.45 12300.00
	 10929.37 12249.11 11292.94 11872.32 11111.89 11151.51 11467.04 10810.66
	 11622.83 10797.04 11759.19 10802.27 11879.01 10811.19 11968.63 10935.53
	 11934.06 11047.71 11880.12 11359.14 11531.72 11847.35 11555.50 12241.05
	 11611.57 12395.35 11858.20 12547.77 12150.51 12511.92 12379.28 12417.16
	 12485.28 12292.09 12759.07 11829.69 13421.25 10920.00 12990.60 10345.80
	 12832.50 10507.50 12729.38 10404.38 12756.29 10350.98 12585.01 10324.25
4 0 -1 0 0 0 36 0.0000000 4 360 255 3900 5700 1\001
4 0 -1 0 0 0 36 0.0000000 4 360 255 3075 5700 2\001
4 0 -1 0 0 0 36 0.0000000 4 360 255 2400 5700 3\001
4 0 -1 0 0 0 36 0.0000000 4 360 255 1575 5700 4\001
4 0 -1 0 0 0 36 0.0000000 4 360 255 975 5700 5\001
4 0 -1 0 0 0 36 0.0000000 4 360 255 6825 5700 4\001
4 0 -1 0 0 0 36 0.0000000 4 360 255 5925 5700 3\001
4 0 -1 0 0 0 36 0.0000000 4 360 255 8625 5700 2\001
4 0 -1 0 0 0 36 0.0000000 4 360 255 9600 5700 1\001
4 0 -1 0 0 0 36 0.0000000 4 360 255 7725 5700 5\001
4 0 -1 0 0 0 36 0.0000000 4 360 255 12375 5700 2\001
4 0 -1 0 0 0 36 0.0000000 4 360 255 11550 5700 3\001
4 0 -1 0 0 0 36 0.0000000 4 360 255 14475 5700 4\001
4 0 -1 0 0 0 36 0.0000000 4 360 255 15525 5700 5\001
4 0 -1 0 0 0 36 0.0000000 4 360 255 13350 5700 1\001
4 0 -1 0 0 0 36 0.0000000 4 360 255 8475 9525 2\001
4 0 -1 0 0 0 36 0.0000000 4 360 255 7800 9525 3\001
4 0 -1 0 0 0 36 0.0000000 4 360 255 9225 9525 5\001
4 0 -1 0 0 0 36 0.0000000 4 360 255 6300 9525 1\001
4 0 -1 0 0 0 36 0.0000000 4 360 255 6975 9525 4\001
4 0 -1 0 0 0 36 0.0000000 4 360 255 975 9525 5\001
4 0 -1 0 0 0 36 0.0000000 4 360 255 2475 9525 3\001
4 0 -1 0 0 0 36 0.0000000 4 360 255 1725 9525 2\001
4 0 -1 0 0 0 36 0.0000000 4 360 255 3225 9525 4\001
4 0 -1 0 0 0 36 0.0000000 4 360 255 3975 9525 1\001
4 0 -1 0 0 0 36 0.0000000 4 360 255 11550 9525 1\001
4 0 -1 0 0 0 36 0.0000000 4 360 255 12525 9525 2\001
4 0 -1 0 0 0 36 0.0000000 4 360 255 15225 9525 3\001
4 0 -1 0 0 0 36 0.0000000 4 360 255 14400 9525 4\001
4 0 -1 0 0 0 36 0.0000000 4 360 255 13425 9525 5\001
4 0 -1 0 0 0 36 0.0000000 4 360 255 3375 13275 5\001
4 0 -1 0 0 0 36 0.0000000 4 360 255 4050 13275 4\001
4 0 -1 0 0 0 36 0.0000000 4 360 255 4875 13275 1\001
4 0 -1 0 0 0 36 0.0000000 4 360 255 6075 13275 2\001
4 0 -1 0 0 0 36 0.0000000 4 360 255 6900 13275 3\001
4 0 -1 0 0 0 36 0.0000000 4 360 255 10800 13275 3\001
4 0 -1 0 0 0 36 0.0000000 4 360 255 9075 13275 1\001
4 0 -1 0 0 0 36 0.0000000 4 360 255 9975 13275 2\001
4 0 -1 0 0 0 36 0.0000000 4 360 255 11625 13275 4\001
4 0 -1 0 0 0 36 0.0000000 4 360 255 12525 13275 5\001
