#FIG 3.1
Portrait
Center
Inches
1200 2
2 3 0 1 -1 14 0 0 20 0.000 0 0 -1 0 0 6
	 900 4800 1200 4800 1200 3000 900 3000 900 4800 900 4800
2 3 0 1 -1 0 0 0 20 0.000 0 0 -1 0 0 6
	 1200 3000 1500 3000 1500 4800 1200 4800 1200 3000 1200 3000
2 3 0 1 -1 0 0 0 20 0.000 0 0 -1 0 0 6
	 1800 3000 2100 3000 2100 4800 1800 4800 1800 3000 1800 3000
2 3 0 1 -1 14 0 0 20 0.000 0 0 -1 0 0 6
	 2100 4800 2400 4800 2400 3000 2100 3000 2100 4800 2100 4800
2 3 0 1 -1 14 0 0 20 0.000 0 0 -1 0 0 6
	 2700 4800 3000 4800 3000 3000 2700 3000 2700 4800 2700 4800
2 3 0 1 -1 0 0 0 20 0.000 0 0 -1 0 0 6
	 3000 3000 3300 3000 3300 4800 3000 4800 3000 3000 3000 3000
2 3 0 1 -1 0 0 0 20 0.000 0 0 -1 0 0 6
	 3600 3000 3900 3000 3900 4800 3600 4800 3600 3000 3600 3000
2 3 0 1 -1 14 0 0 20 0.000 0 0 -1 0 0 6
	 3900 4800 4200 4800 4200 3000 3900 3000 3900 4800 3900 4800
2 3 0 1 -1 21 0 0 20 0.000 0 0 -1 0 0 6
	 1500 3000 1800 3000 1800 3150 1500 3150 1500 3000 1500 3000
2 3 0 1 -1 21 0 0 20 0.000 0 0 -1 0 0 6
	 2400 4650 2700 4650 2700 4800 2400 4800 2400 4650 2400 4650
2 3 0 1 -1 21 0 0 20 0.000 0 0 -1 0 0 6
	 3300 3000 3600 3000 3600 3150 3300 3150 3300 3000 3300 3000
2 2 0 1 -1 14 0 0 0 0.000 0 0 0 0 0 5
	 6600 9900 6600 9900 6600 9900 6600 9900 6600 9900
2 3 0 1 -1 14 0 0 20 0.000 0 0 -1 0 0 6
	 5400 4800 5700 4800 5700 3000 5400 3000 5400 4800 5400 4800
2 3 0 1 -1 0 0 0 20 0.000 0 0 -1 0 0 6
	 5700 3000 6000 3000 6000 4800 5700 4800 5700 3000 5700 3000
2 3 0 1 -1 21 0 0 20 0.000 0 0 -1 0 0 6
	 6000 3000 8100 3000 8100 3150 6000 3150 6000 3000 6000 3000
2 3 0 1 -1 21 0 0 20 0.000 0 0 -1 0 0 6
	 6000 4650 6300 4650 6300 4800 6000 4800 6000 4650 6000 4650
2 3 0 1 -1 0 0 0 20 0.000 0 0 -1 0 0 5
	 6300 3300 6600 3300 6600 4800 6300 4800 6300 3300
2 3 0 1 -1 14 0 0 20 0.000 0 0 -1 0 0 6
	 6600 4800 6900 4800 6900 3300 6600 3300 6600 4800 6600 4800
2 3 0 1 -1 21 0 0 20 0.000 0 0 -1 0 0 6
	 6900 3300 7200 3300 7200 3450 6900 3450 6900 3300 6900 3300
2 3 0 1 -1 14 0 0 20 0.000 0 0 -1 0 0 6
	 7200 4800 7500 4800 7500 3300 7200 3300 7200 4800 7200 4800
2 3 0 1 -1 0 0 0 20 0.000 0 0 -1 0 0 5
	 7500 3300 7800 3300 7800 4800 7500 4800 7500 3300
2 3 0 1 -1 0 0 0 20 0.000 0 0 -1 0 0 6
	 8100 3000 8400 3000 8400 4800 8100 4800 8100 3000 8100 3000
2 3 0 1 -1 14 0 0 20 0.000 0 0 -1 0 0 6
	 8400 4800 8700 4800 8700 3000 8400 3000 8400 4800 8400 4800
2 3 0 1 -1 0 0 0 20 0.000 0 0 -1 0 0 6
	 9900 3000 10200 3000 10200 4800 9900 4800 9900 3000 9900 3000
2 3 0 1 -1 14 0 0 20 0.000 0 0 -1 0 0 6
	 10200 4800 10500 4800 10500 3000 10200 3000 10200 4800 10200 4800
2 3 0 1 -1 21 0 0 20 0.000 0 0 -1 0 0 6
	 10500 3000 10800 3000 10800 3150 10500 3150 10500 3000 10500 3000
2 3 0 1 -1 14 0 0 20 0.000 0 0 -1 0 0 6
	 10800 4500 11100 4500 11100 3000 10800 3000 10800 4500 10800 4500
2 3 0 1 -1 0 0 0 20 0.000 0 0 -1 0 0 5
	 11100 3000 11400 3000 11400 4500 11100 4500 11100 3000
2 3 0 1 -1 21 0 0 20 0.000 0 0 -1 0 0 6
	 10500 4650 12600 4650 12600 4800 10500 4800 10500 4650 10500 4650
2 3 0 1 -1 14 0 0 20 0.000 0 0 -1 0 0 6
	 12600 4800 12900 4800 12900 3000 12600 3000 12600 4800 12600 4800
2 3 0 1 -1 0 0 0 20 0.000 0 0 -1 0 0 6
	 12900 3000 13200 3000 13200 4800 12900 4800 12900 3000 12900 3000
2 3 0 1 -1 21 0 0 20 0.000 0 0 -1 0 0 6
	 12300 3000 12600 3000 12600 3150 12300 3150 12300 3000 12300 3000
2 3 0 1 -1 14 0 0 20 0.000 0 0 -1 0 0 6
	 12000 4500 12300 4500 12300 3000 12000 3000 12000 4500 12000 4500
2 3 0 1 -1 0 0 0 20 0.000 0 0 -1 0 0 5
	 11700 3000 12000 3000 12000 4500 11700 4500 11700 3000
2 3 0 1 -1 0 0 0 20 0.000 0 0 -1 0 0 6
	 14700 3075 15000 3075 15000 4875 14700 4875 14700 3075 14700 3075
2 3 0 1 -1 21 0 0 20 0.000 0 0 -1 0 0 6
	 15000 3075 17100 3075 17100 3225 15000 3225 15000 3075 15000 3075
2 3 0 1 -1 0 0 0 20 0.000 0 0 -1 0 0 6
	 17100 3075 17400 3075 17400 4875 17100 4875 17100 3075 17100 3075
2 3 0 1 -1 14 0 0 20 0.000 0 0 -1 0 0 6
	 17400 4875 17700 4875 17700 3075 17400 3075 17400 4875 17400 4875
2 3 0 1 -1 21 0 0 20 0.000 0 0 -1 0 0 6
	 16800 4725 17100 4725 17100 4875 16800 4875 16800 4725 16800 4725
2 3 0 1 -1 0 0 0 20 0.000 0 0 -1 0 0 5
	 16500 3375 16800 3375 16800 4875 16500 4875 16500 3375
2 3 0 1 -1 14 0 0 20 0.000 0 0 -1 0 0 6
	 16200 4875 16500 4875 16500 3375 16200 3375 16200 4875 16200 4875
2 3 0 1 -1 21 0 0 20 0.000 0 0 -1 0 0 6
	 15900 3375 16200 3375 16200 3525 15900 3525 15900 3375 15900 3375
2 3 0 1 -1 14 0 0 20 0.000 0 0 -1 0 0 6
	 15600 4875 15900 4875 15900 3375 15600 3375 15600 4875 15600 4875
2 3 0 1 -1 0 0 0 20 0.000 0 0 -1 0 0 5
	 15300 3375 15600 3375 15600 4875 15300 4875 15300 3375
2 3 0 1 -1 0 0 0 20 0.000 0 0 -1 0 0 6
	 1200 6075 1500 6075 1500 7875 1200 7875 1200 6075 1200 6075
2 3 0 1 -1 21 0 0 20 0.000 0 0 -1 0 0 6
	 1500 6075 1800 6075 1800 6225 1500 6225 1500 6075 1500 6075
2 3 0 1 -1 0 0 0 20 0.000 0 0 -1 0 0 6
	 1800 6075 2100 6075 2100 7875 1800 7875 1800 6075 1800 6075
2 3 0 1 -1 14 0 0 20 0.000 0 0 -1 0 0 6
	 2100 7875 2400 7875 2400 6075 2100 6075 2100 7875 2100 7875
2 3 0 1 -1 21 0 0 20 0.000 0 0 -1 0 0 6
	 2400 7725 3600 7725 3600 7875 2400 7875 2400 7725 2400 7725
2 2 0 1 -1 14 0 0 20 0.000 0 0 0 0 0 5
	 3600 6075 3900 6075 3900 7875 3600 7875 3600 6075
2 2 0 1 -1 14 0 0 0 0.000 0 0 0 0 0 5
	 3900 6075 4200 6075 4200 7875 3900 7875 3900 6075
2 3 0 1 -1 21 0 0 20 0.000 0 0 -1 0 0 6
	 3300 6075 3600 6075 3600 6225 3300 6225 3300 6075 3300 6075
2 2 0 1 -1 14 0 0 20 0.000 0 0 0 0 0 5
	 3300 6075 3000 6075 3000 7575 3300 7575 3300 6075
2 2 0 1 -1 14 0 0 0 0.000 0 0 0 0 0 5
	 3000 6075 2700 6075 2700 7575 3000 7575 3000 6075
2 3 0 1 -1 14 0 0 20 0.000 0 0 -1 0 0 6
	 900 7875 1200 7875 1200 6075 900 6075 900 7875 900 7875
2 2 0 1 -1 14 0 0 20 0.000 0 0 0 0 0 5
	 5700 6075 5400 6075 5400 7875 5700 7875 5700 6075
2 2 0 1 -1 14 0 0 0 0.000 0 0 0 0 0 5
	 6000 7875 5700 7875 5700 6075 6000 6075 6000 7875
2 3 0 1 -1 21 0 0 20 0.000 0 0 -1 0 0 6
	 6000 6075 8100 6075 8100 6225 6000 6225 6000 6075 6000 6075
2 3 0 1 -1 21 0 0 20 0.000 0 0 -1 0 0 6
	 6000 7725 7200 7725 7200 7875 6000 7875 6000 7725 6000 7725
2 2 0 1 -1 14 0 0 0 0.000 0 0 0 0 0 5
	 8100 6075 8400 6075 8400 7875 8100 7875 8100 6075
2 2 0 1 -1 14 0 0 20 0.000 0 0 0 0 0 5
	 8400 6075 8700 6075 8700 7875 8400 7875 8400 6075
2 2 0 1 -1 14 0 0 0 0.000 0 0 0 0 0 5
	 7200 6375 7500 6375 7500 7875 7200 7875 7200 6375
2 2 0 1 -1 14 0 0 20 0.000 0 0 0 0 0 5
	 7500 6375 7800 6375 7800 7875 7500 7875 7500 6375
2 3 0 1 -1 21 0 0 20 0.000 0 0 -1 0 0 6
	 6900 6375 7200 6375 7200 6525 6900 6525 6900 6375 6900 6375
2 2 0 1 -1 14 0 0 0 0.000 0 0 0 0 0 5
	 6900 6375 6600 6375 6600 7575 6900 7575 6900 6375
2 2 0 1 -1 14 0 0 20 0.000 0 0 0 0 0 5
	 6600 6375 6300 6375 6300 7575 6600 7575 6600 6375
2 3 0 1 -1 0 0 0 20 0.000 0 0 -1 0 0 6
	 9900 6075 10200 6075 10200 7875 9900 7875 9900 6075 9900 6075
2 3 0 1 -1 14 0 0 20 0.000 0 0 -1 0 0 6
	 10200 7875 10500 7875 10500 6075 10200 6075 10200 7875 10200 7875
2 3 0 1 -1 21 0 0 20 0.000 0 0 -1 0 0 6
	 10500 6075 10800 6075 10800 6225 10500 6225 10500 6075 10500 6075
2 3 0 1 -1 14 0 0 20 0.000 0 0 -1 0 0 6
	 10800 7575 11100 7575 11100 6075 10800 6075 10800 7575 10800 7575
2 3 0 1 -1 0 0 0 20 0.000 0 0 -1 0 0 5
	 11100 6075 11400 6075 11400 7575 11100 7575 11100 6075
2 3 0 1 -1 21 0 0 20 0.000 0 0 -1 0 0 6
	 10500 7725 11700 7725 11700 7875 10500 7875 10500 7725 10500 7725
2 2 0 1 -1 14 0 0 20 0.000 0 0 0 0 0 5
	 11700 7875 12000 7875 12000 6075 11700 6075 11700 7875
2 2 0 1 -1 14 0 0 0 0.000 0 0 0 0 0 5
	 12000 6075 12300 6075 12300 7875 12000 7875 12000 6075
2 3 0 1 -1 21 0 0 20 0.000 0 0 -1 0 0 6
	 12300 6075 12600 6075 12600 6225 12300 6225 12300 6075 12300 6075
2 2 0 1 -1 14 0 0 0 0.000 0 0 0 0 0 5
	 12600 6075 12900 6075 12900 7875 12600 7875 12600 6075
2 2 0 1 -1 14 0 0 20 0.000 0 0 0 0 0 5
	 12900 6075 13200 6075 13200 7875 12900 7875 12900 6075
2 3 0 1 -1 14 0 0 20 0.000 0 0 -1 0 0 6
	 14400 7875 14700 7875 14700 6075 14400 6075 14400 7875 14400 7875
2 3 0 1 -1 14 0 0 20 0.000 0 0 -1 0 0 6
	 14400 4875 14700 4875 14700 3075 14400 3075 14400 4875 14400 4875
2 3 0 1 -1 0 0 0 20 0.000 0 0 -1 0 0 6
	 14700 6075 15000 6075 15000 7875 14700 7875 14700 6075 14700 6075
2 3 0 1 -1 21 0 0 20 0.000 0 0 -1 0 0 6
	 15000 6075 17100 6075 17100 6225 15000 6225 15000 6075 15000 6075
2 3 0 1 -1 0 0 0 20 0.000 0 0 -1 0 0 6
	 17100 6075 17400 6075 17400 7875 17100 7875 17100 6075 17100 6075
2 3 0 1 -1 14 0 0 20 0.000 0 0 -1 0 0 6
	 17400 7875 17700 7875 17700 6075 17400 6075 17400 7875 17400 7875
2 3 0 1 -1 21 0 0 20 0.000 0 0 -1 0 0 6
	 15900 7725 17100 7725 17100 7875 15900 7875 15900 7725 15900 7725
2 2 0 1 -1 14 0 0 0 0.000 0 0 0 0 0 5
	 15900 7875 15600 7875 15600 6375 15900 6375 15900 7875
2 2 0 1 -1 14 0 0 20 0.000 0 0 0 0 0 5
	 15600 7875 15300 7875 15300 6375 15600 6375 15600 7875
2 3 0 1 -1 21 0 0 20 0.000 0 0 -1 0 0 6
	 15900 6375 16200 6375 16200 6525 15900 6525 15900 6375 15900 6375
2 2 0 1 -1 14 0 0 0 0.000 0 0 0 0 0 5
	 16200 6375 16500 6375 16500 7575 16200 7575 16200 6375
2 2 0 1 -1 14 0 0 20 0.000 0 0 0 0 0 5
	 16500 6375 16800 6375 16800 7575 16500 7575 16500 6375
4 1 -1 0 0 0 36 0.0000000 4 360 255 2100 5400 2\001
4 1 -1 0 0 0 36 0.0000000 4 360 255 1200 5400 1\001
4 1 -1 0 0 0 36 0.0000000 4 360 255 3000 5400 3\001
4 1 -1 0 0 0 36 0.0000000 4 360 255 3900 5400 4\001
4 1 -1 0 0 0 36 0.0000000 4 360 255 5700 5400 3\001
4 1 -1 0 0 0 36 0.0000000 4 360 255 6600 5400 2\001
4 1 -1 0 0 0 36 0.0000000 4 360 255 7500 5400 1\001
4 1 -1 0 0 0 36 0.0000000 4 360 255 8400 5400 4\001
4 1 -1 0 0 0 36 0.0000000 4 360 255 10200 5475 2\001
4 1 -1 0 0 0 36 0.0000000 4 360 255 11100 5475 1\001
4 1 -1 0 0 0 36 0.0000000 4 360 255 12000 5475 4\001
4 1 -1 0 0 0 36 0.0000000 4 360 255 12900 5475 3\001
4 1 -1 0 0 0 36 0.0000000 4 360 255 14700 5475 1\001
4 1 -1 0 0 0 36 0.0000000 4 360 255 15600 5475 4\001
4 1 -1 0 0 0 36 0.0000000 4 360 255 16500 5475 3\001
4 1 -1 0 0 0 36 0.0000000 4 360 255 17400 5475 2\001
4 1 -1 0 0 0 36 0.0000000 4 360 255 1200 8475 1\001
4 1 -1 0 0 0 36 0.0000000 4 360 255 2100 8475 2\001
4 1 -1 0 0 0 36 0.0000000 4 360 255 3000 8475 4\001
4 1 -1 0 0 0 36 0.0000000 4 360 255 3900 8475 3\001
4 1 -1 0 0 0 36 0.0000000 4 360 255 5700 8475 3\001
4 1 -1 0 0 0 36 0.0000000 4 360 255 6600 8475 1\001
4 1 -1 0 0 0 36 0.0000000 4 360 255 7500 8475 2\001
4 1 -1 0 0 0 36 0.0000000 4 360 255 8400 8475 4\001
4 1 -1 0 0 0 36 0.0000000 4 360 255 10200 8475 2\001
4 1 -1 0 0 0 36 0.0000000 4 360 255 12000 8475 3\001
4 1 -1 0 0 0 36 0.0000000 4 360 255 12900 8475 4\001
4 1 -1 0 0 0 36 0.0000000 4 360 255 11100 8475 1\001
4 1 -1 0 0 0 36 0.0000000 4 360 255 14700 8475 1\001
4 1 -1 0 0 0 36 0.0000000 4 360 255 15600 8475 3\001
4 1 -1 0 0 0 36 0.0000000 4 360 255 16500 8475 4\001
4 1 -1 0 0 0 36 0.0000000 4 360 255 17475 8475 2\001
