
*** Stacktrace of a.out
*** Program terminated due to segmentation violation
dbx: anachronism: Use of option '-wskip' accepted but changed to '-w'
dbx: anachronism: Option '-wskip' will be removed in the next release
  [3] __PC0__sigdie(0xef62a600, 0xbda, 0xeffff658, 0xef626ec8, 0xef78e77c, 0xef77d778), at 0xef77b10c
  ---- called from signal handler with signal 11 (SIGSEGV) ------
  [4] _fflush_u(), at 0xef5e6818
  [5] fflush(0x1, 0xef62aa1c, 0xef7b0c7c, 0xef78e77c, 0xef7ec9c0, 0x0), at 0xef5e6728
  [6] __PC0__PFLUSH(0x21224, 0xef7b0c7c, 0xef7b0c7c, 0xef7ed2b8, 0xef7ec9c0, 0x1ba), at 0xef77b5f8
  [7] __PC0__PCLEANUP(0x2, 0xef7b0c7c, 0xef7b04b8, 0xef7ed2b8, 0xef623138, 0xef598d78), at 0xef77a938
  [8] _exithandle(0xef6255b8, 0xef628f14, 0x0, 0x0, 0x0, 0x0), at 0xef598da0
  [9] exit(0x0, 0xef70ec7c, 0x0, 0x0, 0x0, 0xef77a454), at 0xef6082dc
  [10] __PC0__PCEXIT(0x0, 0xef78f334, 0xef78e77c, 0xef78f330, 0xef78e77c, 0x0), at 0xef77a45c
  [11] main(0x1, 0xeffffd0c, 0xeffffd14, 0x21000, 0x0, 0x0), at 0xef779e08
detaching from process 3033

*** Stacktrace of a.out
*** Program terminated due to segmentation violation
dbx: anachronism: Use of option '-wskip' accepted but changed to '-w'
dbx: anachronism: Option '-wskip' will be removed in the next release
  [3] __PC0__sigdie(0xef62a600, 0xbe1, 0xeffff658, 0xef626ec8, 0xef78e77c, 0xef77d778), at 0xef77b10c
  ---- called from signal handler with signal 11 (SIGSEGV) ------
  [4] _fflush_u(), at 0xef5e6818
  [5] fflush(0xfffffff1, 0xef62aa1c, 0xef7b0c7c, 0xef78e77c, 0xef7ec9c0, 0x0), at 0xef5e6728
  [6] __PC0__PFLUSH(0x21218, 0xef7b0c7c, 0xef7b0c7c, 0xef7ed2b8, 0xef7ec9c0, 0x1ba), at 0xef77b5f8
  [7] __PC0__PCLEANUP(0x2, 0xef7b0c7c, 0xef7b04b8, 0xef7ed2b8, 0xef623138, 0xef598d78), at 0xef77a938
  [8] _exithandle(0xef6255b8, 0xef628f14, 0x0, 0x0, 0x0, 0x0), at 0xef598da0
  [9] exit(0x0, 0xef70ec7c, 0x0, 0x0, 0x0, 0xef77a454), at 0xef6082dc
  [10] __PC0__PCEXIT(0x0, 0xef78f334, 0xef78e77c, 0xef78f330, 0xef78e77c, 0x0), at 0xef77a45c
  [11] main(0x1, 0xeffffd0c, 0xeffffd14, 0x21000, 0x0, 0x0), at 0xef779e08
detaching from process 3040

*** Stacktrace of a.out
*** Program terminated due to bus error
dbx: anachronism: Use of option '-wskip' accepted but changed to '-w'
dbx: anachronism: Option '-wskip' will be removed in the next release
  [3] __PC0__sigdie(0xef62a600, 0xbe7, 0xeffff718, 0xef626ec8, 0xef78e77c, 0xef77d75c), at 0xef77b10c
  ---- called from signal handler with signal 10 (SIGBUS) ------
  [4] __PC0__PFLUSH(), at 0xef77b5e8
  [5] __PC0__PCLEANUP(0x2, 0xef7b0c7c, 0xef7b04b8, 0xef7ed2b8, 0xef623138, 0xef598d78), at 0xef77a938
  [6] _exithandle(0xef6255b8, 0xef628f14, 0x0, 0x0, 0x0, 0x0), at 0xef598da0
  [7] exit(0x0, 0xef70ec7c, 0x0, 0x0, 0x0, 0xef77a454), at 0xef6082dc
  [8] __PC0__PCEXIT(0x0, 0xef78f334, 0xef78e77c, 0xef78f330, 0xef78e77c, 0x0), at 0xef77a45c
  [9] main(0x1, 0xeffffd0c, 0xeffffd14, 0x21000, 0x0, 0x0), at 0xef779e08
detaching from process 3046

*** Stacktrace of a.out
*** Program terminated due to bus error
dbx: anachronism: Use of option '-wskip' accepted but changed to '-w'
dbx: anachronism: Option '-wskip' will be removed in the next release
  [3] __PC0__sigdie(0xef62a600, 0xbed, 0xeffff718, 0xef626ec8, 0xef78e77c, 0xef77d75c), at 0xef77b10c
  ---- called from signal handler with signal 10 (SIGBUS) ------
  [4] __PC0__PFLUSH(), at 0xef77b5e8
  [5] __PC0__PCLEANUP(0x2, 0xef7b0c7c, 0xef7b04b8, 0xef7ed2b8, 0xef623138, 0xef598d78), at 0xef77a938
  [6] _exithandle(0xef6255b8, 0xef628f14, 0x0, 0x0, 0x0, 0x0), at 0xef598da0
  [7] exit(0x0, 0xef70ec7c, 0x0, 0x0, 0x0, 0xef77a454), at 0xef6082dc
  [8] __PC0__PCEXIT(0x0, 0xef78f334, 0xef78e77c, 0xef78f330, 0xef78e77c, 0x0), at 0xef77a45c
  [9] main(0x1, 0xeffffd0c, 0xeffffd14, 0x21000, 0x0, 0x0), at 0xef779e08
detaching from process 3052
